mips_cpu.sim/sim_1/behav/xsim/simulate.log
Time resolution is 1 ps
PC	 Instruction	 ALUResult	 WriteData	 Time
00000000	 2009000f	 0000000f	 0000000f	                20000
00000004	 200a0003	 00000003	 00000003	                24000
00000008	 012a5820	 00000012	 00000012	                32000
0000000c	 012a6022	 0000000c	 0000000c	                40000
00000010	 012a6824	 00000003	 00000003	                48000
00000014	 012a7025	 0000000f	 0000000f	                56000
00000018	 0149782a	 00000001	 00000001	                64000
0000001c	 xxxxxxxx	 xxxxxxxx	 xxxxxxxx	                72000
00000020	 xxxxxxxx	 xxxxxxxx	 xxxxxxxx	                80000
00000024	 xxxxxxxx	 xxxxxxxx	 xxxxxxxx	                88000
00000028	 xxxxxxxx	 xxxxxxxx	 xxxxxxxx	                96000
0000002c	 xxxxxxxx	 xxxxxxxx	 xxxxxxxx	               104000
00000030	 xxxxxxxx	 xxxxxxxx	 xxxxxxxx	               112000
00000034	 xxxxxxxx	 xxxxxxxx	 xxxxxxxx	               120000
00000038	 xxxxxxxx	 xxxxxxxx	 xxxxxxxx	               128000
0000003c	 xxxxxxxx	 xxxxxxxx	 xxxxxxxx	               136000
00000040	 xxxxxxxx	 xxxxxxxx	 xxxxxxxx	               144000
00000044	 xxxxxxxx	 xxxxxxxx	 xxxxxxxx	               152000
00000048	 xxxxxxxx	 xxxxxxxx	 xxxxxxxx	               160000
0000004c	 xxxxxxxx	 xxxxxxxx	 xxxxxxxx	               168000
00000050	 xxxxxxxx	 xxxxxxxx	 xxxxxxxx	               176000
00000054	 xxxxxxxx	 xxxxxxxx	 xxxxxxxx	               184000
00000058	 xxxxxxxx	 xxxxxxxx	 xxxxxxxx	               192000
0000005c	 xxxxxxxx	 xxxxxxxx	 xxxxxxxx	               200000
00000060	 xxxxxxxx	 xxxxxxxx	 xxxxxxxx	               208000
00000064	 xxxxxxxx	 xxxxxxxx	 xxxxxxxx	               216000
Reg[$t1/r9]=         0
Reg[$t2/r10]=         0
Reg[$t3]=         0
Reg[$t4]=         0
Reg[$t5]=         0
Reg[$t6]=         0
Reg[$t7]=         0
$stop called at time : 220 ns : File "D:/vivado/project/mips_cpu/mips_cpu.srcs/sim_1/new/top_tb.v" Line 33
